{
  "hosting": {
    "public": ".",
    "ignore": [
      "firebase.json",
      "**/.*",
      "**/node_modules/**"
    ],
    "redirects": [
      {
        "source": "/farm/:id*",
        "destination": "https://agrobasedmarket.com/#/farm?:id",
        "type": 301
      },
      {
        "source": "/farms/:id*",
        "destination": "https://agrobasedmarket.com/#/farm?:id",
        "type": 301
      },

      {
        "source": "/produce/:id*",
        "destination": "https://agrobasedmarket.com/#/produce?:id",
        "type": 301
      },

      {
        "source": "/produce/gh/:id*",
        "destination": "https://agrobasedmarket.com/#/produce?:id&country=ghana",
        "type": 301
      }


    ],
    "rewrites": [
      {
        "source": "/**",
        "dynamicLinks": true
      },
      {
        "source": "!/**",
        "destination": "/index.html"
      }
    ]
  }
}
